{
  "$schema": "https://themost-framework.github.io/themost/models/2018/2/schema.json",
  "@id": "https://universis.io/schemas/AutoRegisterStatus",
  "name": "AutoRegisterStatus",
  "title": "Student course class register status",
  "description": "Κατάσταση δήλωσης μαθήματος (αυτόματη ή όχι)",
  "hidden": false,
  "sealed": false,
  "abstract": false,
  "caching": "always",
  "implements": "Enumeration",
  "category": "lookup",
  "version": "1.0",
  "fields": [
    {
      "name": "id",
      "title": "Id",
      "type": "Counter",
      "nullable": false,
      "primary": true
    }
  ],
  "privileges": [
    {
      "mask": 1,
      "type": "global",
      "account": "*"
    },
    {
      "mask": 15,
      "type": "global"
    },
    {
      "mask": 15,
      "type": "global",
      "account": "Administrators"
    }
  ],
  "constraints": [
    {
      "type": "unique",
      "description": "Alternate name must be unique across different records",
      "fields": [
        "alternateName"
      ]
    },
    {
      "type": "unique",
      "description": "Name must be unique across different records",
      "fields": [
        "name"
      ]
    }
  ],
  "seed": [
    {
      "alternateName": "registrar",
      "name": "Από τη γραμματεία",
      "identifier": 0,
      "description": "Από τη γραμματεία"
    },
    {
      "alternateName": "student",
      "name": "Από το φοιτητή",
      "identifier": 1,
      "description": "Από το φοιτητή"
    },
    {
      "alternateName": "auto",
      "name": "Αυτόματη από τη γραμματεία",
      "identifier": -1,
      "description": "Αυτόματη από τη γραμματεία"
    }
  ],
  "eventListeners": [
    {
      "name": "Lookup Cache Listener",
      "type": "./listeners/lookup-cache-listener.js"
    }
  ]
}