{
  "$schema": "https://themost-framework.github.io/themost/models/2018/2/schema.json",
  "@id": "https://universis.io/schemas/CourseClassInstructor",
  "name": "CourseClassInstructor",
  "title": "Διδάσκοντας τάξης",
  "description": "Διδάσκοντες που συμμετέχουν στη διδασκαλία τάξης ενός μαθήματος",
  "hidden": false,
  "sealed": false,
  "version": "0.3",
  "source": "CourseClassInstructorBase",
  "view": "CourseClassInstructorData",
  "fields": [
    {
      "name": "id",
      "title": "Id",
      "description": "Id",
      "type": "Text",
      "nullable": false,
      "size": 36,
      "primary": true,
      "readonly": true,
      "value": "javascript:return this.newGuid();"
    },
    {
      "name": "courseClass",
      "title": "Διδασκαλία μαθήματος",
      "description": "Course Class - Διδασκαλία μαθήματος",
      "type": "CourseClass",
      "nullable": false,
      "editable": false
    },
    {
      "name": "instructor",
      "title": "Διδάσκων",
      "description": "Ο διδάσκων της τάξης",
      "type": "Instructor",
      "nullable": false,
      "editable": false
    },
    {
      "name": "allowEdit",
      "title": "Επιτρέπεται η επεξεργασία (ΝΑΙ/ΟΧΙ)",
      "description": "Αν επιτρέπεται η επεξεργασία",
      "type": "Boolean",
      "value": "javascript:return true;",
      "calculation": "javascript:return this.convertStrictBoolean(this.target,'allowEdit');",
      "nullable": false
    },
    {
      "name": "teachingHours",
      "title": "Ώρες διδασκαλίας",
      "description": "Ώρες διδασκαλίας",
      "type": "Number",
      "value": "javascript:return this.target.courseClass.weekHours;"
    },
    {
      "name": "dateModified",
      "title": "dateModified",
      "description": "dateModified",
      "type": "DateTime",
      "nullable": false,
      "value": "javascript:return new Date();",
      "calculation": "javascript:return this.now();"
    },
    {
      "name": "role",
      "title": "Instructor role",
      "description": "Course class instructor role",
      "type": "InstructorRole",
      "multiplicity": "ZeroOrOne",
      "value": "javascript:return { alternateName:'supervisor' };",
      "mapping": {
        "associationAdapter": "CourseClassInstructorRoles",
        "parentModel": "CourseClassInstructor",
        "parentField": "id",
        "childModel": "InstructorRole",
        "childField": "id",
        "associationType": "junction",
        "cascade": "delete",
        "associationValueField": "role",
        "privileges": [
          {
            "mask":15,
            "type": "global"
          },
          {
            "mask": 15,
            "type": "global",
            "account": "Administrators"
          },
          {
            "mask": 1,
            "type": "self",
            "account": "Instructors",
            "filter": "parentId/instructor eq instructor()"
          },
          {
            "mask": 15,
            "type": "self",
            "account": "Registrar",
            "filter": "parentId/courseClass/course/department eq departments()"
          }
        ]
      }
    }
  ],
  "constraints": [
    {
      "type": "unique",
      "description": "A student class registration must be unique for an academic period.",
      "fields": [
        "instructor",
        "courseClass"
      ]
    }
  ],
  "privileges": [
    {
      "mask": 1,
      "type": "global",
      "account": "*"
    },
    {
      "mask": 15,
      "type": "global"
    },
    {
      "mask": 15,
      "type": "global",
      "account": "Administrators"
    },
    {
      "mask": 15,
      "type": "self",
      "account": "Registrar",
      "filter": "courseClass/course/department eq departments()"
    }
  ]
}
