{
  "$schema": "https://themost-framework.github.io/themost/models/2018/2/schema.json",
  "@id": "https://themost.io/schemas/GraduationRequestAction",
  "name": "GraduationRequestAction",
  "description": "The act of requesting graduation",
  "title": "GraduationRequestAction",
  "abstract": false,
  "sealed": false,
  "inherits": "StudentRequestAction",
  "version": "1.2",
  "fields": [
    {
      "@id": "http://schema.org/name",
      "name": "name",
      "title": "name",
      "description": "The name of the item.",
      "nullable": false,
      "type": "Text"
    },
    {
      "@id": "http://schema.org/description",
      "name": "description",
      "title": "description",
      "description": "A description of the item.",
      "type": "Text",
      "nullable": true
    },
    {
      "@id": "http://schema.org/additionalType",
      "name": "additionalType",
      "readonly": true,
      "nullable": false,
      "value": "javascript:return this.model.name;"
    },
    {
      "@id": "https://universis.io/schemas/GraduationEvent",
      "name": "graduationEvent",
      "title": "Graduation event",
      "description": "Indicates the related graduation event",
      "type": "GraduationEvent",
      "nullable": false
    },
    {
      "@id": "http://schema.org/actionStatus",
      "name": "actionStatus",
      "title": "actionStatus",
      "description": "Indicates the current disposition of the Action.",
      "type": "ActionStatusType",
      "value": "javascript:return { alternateName:'PotentialActionStatus' };"
    },
    {
      "name": "graduationValid",
      "title": "Valid graduation",
      "description": "Indicates whether graduation rules are met for this student.",
      "type": "Boolean"
    },
    {
      "name": "attachmentValid",
      "title": "Valid attachments",
      "description": "Indicates whether required attachments are accepted for this student.",
      "type": "Boolean"
    }
  ],
  "eventListeners": [
    {
      "type": "@themost/data/previous-state-listener"
    },
    {
      "type": "./listeners/graduation-request-listener"
    },
    {
      "type": "./listeners/after-request-action-claimed-listener"

    }
  ],
  "constraints": [
    {
      "type": "unique",
      "description": "A student graduation request must be unique for a graduation event.",
      "fields": [
        "graduationEvent",
        "student"
      ]
    }
  ],
  "privileges": [
    {
      "mask": 15,
      "type": "global"
    },
    {
      "mask": 15,
      "type": "global",
      "account": "Administrators"
    },
    {
      "mask": 3,
      "type": "self",
      "account": "Students",
      "filter": "owner eq me()"
    },
    {
      "mask": 4,
      "type": "self",
      "account": "Students",
      "filter": "owner eq me() and actionStatus/alternateName eq 'PotentialActionStatus'"
    },
    {
      "mask": 15,
      "type": "self",
      "account": "Registrar",
      "filter": "student/department eq departments() "
    }
  ]
}
