{
  "$schema": "https://themost-framework.github.io/themost/models/2018/2/schema.json",
  "@id": "https://universis.io/schemas/GradeType",
  "name": "GradeType",
  "title": "Τύπος βαθμολογίας (ο τρόπος απόκτησης της βαθμολογίας)",
  "hidden": false,
  "sealed": false,
  "abstract": false,
  "caching": "always",
  "implements": "Enumeration",
  "category": "lookup",
  "version": "1.0",
  "fields": [
    {
      "name": "id",
      "title": "Id",
      "type": "Counter",
      "nullable": false,
      "primary": true
    },
    {
      "@id": "http://schema.org/description",
      "name": "description",
      "title": "description",
      "description": "A description of the item.",
      "type": "Text",
      "size": 512
    }
  ],
  "privileges": [
    {
      "mask": 1,
      "type": "global",
      "account": "*"
    },
    {
      "mask": 15,
      "type": "global"
    },
    {
      "mask": 15,
      "type": "global",
      "account": "Administrators"
    }
  ],
  "constraints": [
    {
      "type": "unique",
      "description": "Alternate name must be unique across different records",
      "fields": [
        "alternateName"
      ]
    },
    {
      "type": "unique",
      "description": "Name must be unique across different records",
      "fields": [
        "name"
      ]
    }
  ],
  "seed": [
    {
      "alternateName": "exam",
      "name": "Εξέταση",
      "description": "Απόκτηση βαθμού μετά από εξέταση του μαθήματος σε μια από τις διαθέσιμες εξεταστικές περιόδους ενός ακαδημαϊκού έτους"
    },
    {
      "alternateName": "consolidation",
      "name": "Απαλλαγή χωρίς βαθμό",
      "description": "Απαλλαγή από τη φοίτηση και την εξέταση ενός μαθήματος (συνήθως για φοιτητές από μετεγγραφή, κατάταξη κλπ.) χωρίς να αναγνωρίζεται κάποιος βαθμός για τη λήψη πτυχίου"
    },
    {
      "alternateName": "gradeconsolidation",
      "name": "Κατοχύρωση – Αναγνώριση με βαθμό",
      "description": "απαλλαγή από τη φοίτηση και την εξέταση ενός μαθήματος με ταυτόχρονη αναγνώριση βαθμού μαθήματος (συνήθως για φοιτητές που συμμετείχαν σε προγράμματα ανταλλαγής κλπ.). Το μάθημα υπολογίζεται και στους κανόνες λήψης πτυχίου αλλά και στον υπολογισμό του βαθμού πτυχίου."
    }
  ],
  "eventListeners": [
    {
      "name": "Lookup Cache Listener",
      "type": "./listeners/lookup-cache-listener.js"
    }
  ]
}
