{
  "$schema": "https://themost-framework.github.io/themost/models/2018/2/schema.json",
  "@id": "https://universis.io/schemas/RequestRule",
  "name": "RequestRule",
  "title": "Request Rules",
  "version": "1.2",
  "implements": "Rule",
  "abstract": false,
  "sealed": false,
  "fields": [
    {
      "name": "id",
      "title": "Id",
      "description": "Id",
      "type": "Counter",
      "nullable": false,
      "primary": true
    },
    {
      "name": "targetTypeIdentifier",
      "title": "Target type identifier",
      "description": "An internal identifier of target type",
      "type": "Text",
      "nullable": true
    },
    {
      "name": "refersToIdentifier",
      "title": "An internal identifier for the target model",
      "type": "Text",
      "nullable": true
    },
    {
      "name": "additionalTypeIdentifier",
      "title": "An internal identifier of additional type",
      "type": "Text",
      "nullable": true
    },
    {
      "name": "dateModified",
      "title": "dateModified",
      "description": "dateModified",
      "type": "DateTime",
      "nullable": true,
      "value": "javascript:return new Date();",
      "calculation": "javascript:return this.now();"
    }
  ],
  "privileges": [
    {
      "mask": 1,
      "type": "global",
      "account": "*"
    },
    {
      "mask": 15,
      "type": "global"
    },
    {
      "mask": 15,
      "type": "global",
      "account": "Administrators"
    }
  ]
}
