{
  "$schema": "https://themost-framework.github.io/themost/models/2018/2/schema.json",
  "@id": "https://themost.io/schemas/RequestMessageAction",
  "name": "RequestMessageAction",
  "description": "The act of requesting something by sending a message",
  "title": "RequestMessageAction",
  "abstract": false,
  "sealed": false,
  "inherits": "StudentRequestAction",
  "version": "1.6",
  "fields": [
    {
      "@id": "http://schema.org/name",
      "name": "name",
      "title": "name",
      "description": "The name of the item.",
      "nullable": false,
      "type": "Text"
    },
    {
      "@id": "http://schema.org/description",
      "name": "description",
      "title": "description",
      "description": "A description of the item.",
      "type": "Text",
      "nullable": false
    },
    {
      "@id": "http://schema.org/additionalType",
      "name": "additionalType",
      "readonly": true,
      "nullable": false,
      "value": "javascript:return this.model.name;"
    },
    {
      "@id": "http://schema.org/actionStatus",
      "name": "actionStatus",
      "title": "actionStatus",
      "description": "Indicates the current disposition of the Action.",
      "type": "ActionStatusType",
      "value": "javascript:return { alternateName:'ActiveActionStatus' };"
    }
  ],
  "privileges": [
    {
      "mask": 15,
      "type": "global"
    },
    {
      "mask": 15,
      "type": "global",
      "account": "Administrators"
    },
    {
      "mask": 1,
      "type": "self",
      "filter": "owner eq me()"
    },
    {
      "mask": 2,
      "type": "self",
      "filter": "owner eq me()"
    },
    {
      "mask": 15,
      "type": "self",
      "account": "Registrar",
      "filter": "student/department eq departments()"
    }
  ]
}
