{
  "$schema": "https://themost-framework.github.io/themost/models/2018/2/schema.json",
  "@id": "https://universis.io/schemas/RuleMeasureType",
  "name": "RuleMeasureType",
  "title": "Rule measure type",
  "description": "Τύποι μετρήσεων κανόνων",
  "hidden": false,
  "sealed": false,
  "abstract": false,
  "caching": "always",
  "implements": "Enumeration",
  "category": "lookup",
  "version": "1.0",
  "fields": [
    {
      "name": "id",
      "title": "Id",
      "type": "Counter",
      "nullable": false,
      "primary": true
    }
  ],
  "privileges": [
    {
      "mask": 1,
      "type": "global",
      "account": "*"
    },
    {
      "mask": 15,
      "type": "global"
    },
    {
      "mask": 15,
      "type": "global",
      "account": "Administrators"
    }
  ],
  "constraints": [
    {
      "type": "unique",
      "description": "Alternate name must be unique across different records",
      "fields": [
        "alternateName"
      ]
    },
    {
      "type": "unique",
      "description": "Name must be unique across different records",
      "fields": [
        "name"
      ]
    }
  ],
  "seed": [
    {
      "alternateName": "units",
      "name": "Διδακτικές μονάδες",
      "identifier": 0,
      "description": "άθροισμα διδακτικών μονάδων"
    },
    {
      "alternateName": "countOf",
      "name": "Αριθμός",
      "identifier": 1,
      "description": "σύνολο"
    },
    {
      "alternateName": "hours",
      "name": "Ώρες",
      "identifier": 2,
      "description": "άθροισμα ωρών"
    },
    {
      "alternateName": "ects",
      "name": "ECTS",
      "identifier": 3,
      "description": "άθροισμα ects"
    }
  ],
  "eventListeners": [
    {
      "name": "Lookup Cache Listener",
      "type": "./listeners/lookup-cache-listener.js"
    }
  ]
}
