{
  "$schema": "https://themost-framework.github.io/themost/models/2018/2/schema.json",
  "@id": "https://universis.io/schemas/StudentDeclaration",
  "name": "StudentDeclaration",
  "title": "Ανακήρυξη φοιτητή",
  "description": "Στοιχεία ανακύρηξης φοιτητή",
  "hidden": false,
  "sealed": false,
  "version": "0.1",
  "source": "StudentDeclarationBase",
  "view": "StudentDeclarationBase",
  "fields": [
    {
      "name": "id",
      "title": "Κωδικός",
      "description": "Ο μοναδικός κωδικός της εγγραφής",
      "nullable": false,
      "primary": true,
      "type": "Guid",
      "value": "javascript:return this.newGuid();"
    },
    {
      "name": "student",
      "title": "Φοιτητής",
      "description": "Ο φοιτητής",
      "type": "Student",
      "nullable": false,
      "editable": false
    },
    {
      "name": "declaredDate",
      "title": "Ημερομηνία ανακήρυξης",
      "description": "Ημερομηνία ανακήρυξης",
      "type": "DateTime",
      "nullable": false
    },
    {
      "name": "declaredPeriod",
      "title": "Περίοδος ανακήρυξης",
      "description": "Περίοδος ανακήρυξης",
      "type": "AcademicPeriod",
      "expandable": true
    },
    {
      "name": "declaredYear",
      "title": "Ακαδημαϊκό έτος ανακήρυξης",
      "description": "Ακαδημαϊκό έτος ανακήρυξης",
      "type": "AcademicYear",
      "expandable": true
    },
    {
      "name": "graduationDate",
      "title": "Ημερομηνία ορκωμοσίας",
      "description": "Ημερομηνία ορκωμοσίας",
      "type": "DateTime",
      "nullable": true,
      "size": 4
    },
    {
      "name": "graduationGrade",
      "title": "Βαθμός πτυχίου (0-1)",
      "description": "Βαθμός πτυχίου (0-1)",
      "type": "Number"
    },
    {
      "name": "graduationGradeScale",
      "title": "Κλίμακα βαθμού πτυχίου",
      "description": "Κλίμακα βαθμού πτυχίου",
      "type": "GradeScale",
      "nullable": true
    },
    {
      "name": "graduationGradeAdjusted",
      "title": "Βαθμός πτυχίου (ανηγμένος στην κλίμακα)",
      "description": "Βαθμός πτυχίου (ανηγμένος στην κλίμακα)",
      "type": "Text",
      "nullable": true,
      "size": 15
    },
    {
      "name": "graduationGradeWrittenInWords",
      "title": "Βαθμός πτυχίου ολογράφως",
      "description": "Βαθμός πτυχίου ολογράφως",
      "type": "Text",
      "nullable": true,
      "size": 50
    },
    {
      "name": "dateModified",
      "title": "Ημερομηνία τελευταίας τροποποίησης",
      "description": "Ημερομηνία τελευταίας τροποποίησης",
      "type": "DateTime",
      "nullable": false,
      "value": "javascript:return new Date();",
      "calculation": "javascript:return this.now();"
    }
  ],
  "privileges": [
    {
      "mask": 1,
      "type": "self",
      "filter": "student eq student()",
      "account": "Students"
    },
    {
      "mask": 15,
      "type": "global",
      "account": "Administrators"
    },
    {
      "mask": 15,
      "type": "global"
    },
    {
      "mask": 15,
      "type": "self",
      "account": "Registrar",
      "filter": "student/department eq departments()"
    }
  ],
  "eventListeners": [
    {
      "type": "./listeners/student-declaration-event-listener"
    }
  ],
  "constraints": [
    {
      "type": "unique",
      "description": "Student must be unique across different records",
      "fields": [
        "student"
      ]
    }
  ]
}
