{
  "$schema": "https://themost-framework.github.io/themost/models/2018/2/schema.json",
  "@id": "https://universis.io/schemas/StudentCourseClass",
  "name": "StudentCourseClass",
  "title": "Student Classes",
  "hidden": false,
  "sealed": false,
  "version": "0.2",
  "classPath": "./models/student-class-model",
  "source": "StudentCourseClassBase",
  "view": "StudentCourseClassData",
  "fields": [
    {
      "name": "id",
      "title": "Κωδικός",
      "description": "Ο μοναδικός κωδικός της εγγραφής.",
      "type": "Text",
      "nullable": false,
      "size": 36,
      "primary": true,
      "readonly": true,
      "value": "javascript:return this.newGuid();"
    },
    {
      "name": "registration",
      "title": "Εγγραφή φοιτητή",
      "description": "Η εγγραφή του φοιτητή σε συγκεκριμένο έτος και περίοδο.",
      "type": "StudentPeriodRegistration",
      "nullable": false,
      "editable": false
    },
    {
      "name": "courseClass",
      "title": "Τάξη",
      "description": "Η τάξη του μαθήματος",
      "type": "CourseClass",
      "nullable": false,
      "editable": false
    },
    {
      "name": "student",
      "title": "Φοιτητής",
      "description": "Φοιτητής",
      "type": "Student",
      "nullable": false,
      "editable": false
    },
    {
      "name": "finalGrade",
      "title": "Τελικός βαθμός",
      "description": "Ο τελικός βαθμός της δήλωσης του μαθήματος",
      "type": "Number",
      "nullable": true
    },
    {
      "name": "registrationType",
      "title": "Τύπος",
      "description": "Τύπος δήλωσης",
      "type": "RegistrationType",
      "nullable": true,
      "value": "javascript:return 1;"
    },
    {
      "name": "absences",
      "title": "Απουσίες",
      "description": "Αριθμός απουσιών του φοιτητή στο μάθημα για το έτος και την περίοδο.",
      "type": "Integer",
      "nullable": true,
      "size": 4
    },
    {
      "name": "examPeriod",
      "title": "Εξεταστική",
      "description": "Η τελευταία εξεταστική περίοδος που βαθμολογήθηκε ο φοιτητής για την τάξη.",
      "type": "ExamPeriod",
      "nullable": true,
      "size": 2
    },
    {
      "name": "autoRegistered",
      "title": "Αυτόματη",
      "description": "Αν η δήλωση της τάξης έγινε με αυτόματη διαδικασία.",
      "type": "AutoRegisterStatus",
      "nullable": true,
      "mapping": {
        "parentModel": "AutoRegisterStatus",
        "childModel": "StudentCourseClass",
        "parentField": "identifier",
        "childField": "autoRegistered",
        "associationType": "association"
      },
      "value": "javascript:return { alternateName:'student' };",
      "expandable": true
    },
    {
      "name": "examGrade",
      "title": "Βαθμός εξέτασης",
      "description": "Ο βαθμός της τελευταίας εξέτασης της τάξης.",
      "type": "Number",
      "nullable": true,
      "size": 4
    },
    {
      "name": "section",
      "title": "Τμήμα",
      "description": "Τμήμα τάξης",
      "type": "Integer",
      "nullable": true,
      "size": 4
    },
    {
      "name": "status",
      "title": "Κατάσταση",
      "description": "Η κατάσταση της δήλωσης της τάξης.",
      "type": "StudentClassStatus",
      "nullable": true
    },
    {
      "name": "units",
      "title": "Διδακτικές μονάδες",
      "description": "Διδακτικές μονάδες",
      "type": "Number",
      "nullable": true,
      "size": 4
    },
    {
      "name": "coefficient",
      "title": "Συντελεστής πτυχίου",
      "description": "Ο συντελεστής πτυχίου",
      "type": "Number",
      "nullable": true,
      "size": 4
    },
    {
      "name": "hours",
      "title": "Ώρες διδασκαλίας",
      "description": "Ώρες διδασκαλίας",
      "type": "Text",
      "nullable": true,
      "size": 2
    },
    {
      "name": "semester",
      "title": "Εξάμηνο",
      "description": "Το εξάμηνο χρέωσης του μαθήματος στο φοιτητή.",
      "type": "Semester",
      "nullable": false,
      "expandable": true
    },
    {
      "name": "courseType",
      "title": "Τύπος μαθήματος",
      "description": "Ο τύπος του μαθήματος στο φοιτητή.",
      "type": "CourseType",
      "nullable": false,
      "expandable": true
    },
    {
      "name": "ects",
      "title": "ects",
      "description": "Μονάδες ECTS",
      "type": "Number",
      "nullable": true,
      "size": 4
    },
    {
      "name": "percentileRank",
      "title": "percentileRank",
      "description": "percentileRank",
      "type": "Number",
      "nullable": true,
      "size": 4
    },
    {
      "name": "dateModified",
      "title": "Ημερομηνία τροποποίησης",
      "description": "Ημερομηνία τροποποίησης",
      "type": "DateTime",
      "nullable": false,
      "value": "javascript:return new Date();",
      "calculation": "javascript:return this.now();"
    },
    {
      "name": "course",
      "title": "Μάθημα",
      "description": "Μάθημα",
      "type": "Course",
      "nullable": false,
      "readonly": true
    },
    {
      "name": "isPassed",
      "title": "Passed course",
      "description": "Το μάθημα έχει περαστεί",
      "type": "Number",
      "readonly": true
    },
    {
      "name": "formattedGrade",
      "title": "Βαθμός (στην κλίμακα)",
      "description": "Βαθμός (στην κλίμακα)",
      "type": "Text",
      "readonly": true
    },
    {
      "name": "sectionName",
      "title": "Τμήμα τάξης (ονομασία)",
      "description": "Τμήμα τάξης (ονομασία)",
      "type": "Text",
      "readonly": true
    },
    {
      "name": "studentDepartment",
      "title": "Τμήμα φοιτητή",
      "description": "Τμήμα φοιτητή",
      "type": "Department",
      "readonly": true
    },
    {
      "name": "attendances",
      "title": "Attendances",
      "description": "Το σύνολο των παρουσιών/απουσιών",
      "type": "TeachingEventAttendance",
      "many": true,
      "mapping": {
        "parentModel": "StudentCourseClass",
        "childModel": "TeachingEventAttendance",
        "parentField": "id",
        "childField": "studentCourseClass",
        "cascade": "none",
        "associationType": "association"
      }
    }
  ],
  "constraints": [
    {
      "type": "unique",
      "description": "A student class registration must be unique for an academic period.",
      "fields": [
        "student",
        "courseClass"
      ]
    },
    {
      "type": "unique",
      "fields": [
        "registration",
        "courseClass"
      ]
    }
  ],
  "privileges": [
    {
      "mask": 15,
      "type": "global"
    },
    {
      "mask": 1,
      "type": "self",
      "filter": "student eq student()",
      "account": "Students"
    },
    {
      "mask": 1,
      "type": "self",
      "filter": "courseClass/instructors/instructor eq instructor()",
      "account": "Instructors"
    },
    {
      "mask": 15,
      "type": "global",
      "account": "Administrators"
    },
    {
      "mask": 15,
      "type": "self",
      "account": "Registrar",
      "filter": "student/department eq departments() or courseClass/course/department eq departments()"
    }
  ],
  "views": [
    {
      "name": "RegistrationRequest",
      "description": "This view contains the fields that is going to used for extending student available classes data.",
      "fields": [
        {
          "name": "courseClass"
        },
        {
          "name": "section"
        }
      ]
    },
    {
      "name": "InstructorClassStudents",
      "description": "This view contains the fields that is going to used for exporting class students.",
      "fields": [
        {
          "name": "id"
        },
        {
          "name": "courseClass"
        },
        {
          "name": "student",
          "mapping": {
            "options": {
              "$select": "StudentSummary"
            }
          }
        },
        {
          "name": "registration/semester",
          "property": "registrationSemester"
        },
        {
          "name": "formattedGrade"
        },
        {
          "name": "examPeriod",
          "expandable": true
        },
        {
          "name": "finalGrade"
        },
        {
          "name": "isPassed"
        },
        {
          "name": "sectionName"
        },
        {
          "name": "courseType",
          "expandable": true
        },
        {
          "name": "attendances"
        },
        {
          "name": "status",
          "expandable": true
        }
      ],
      "privileges": [
        {
          "mask": 1,
          "type": "self",
          "filter": "courseClass/instructors/instructor eq instructor()",
          "account": "Instructors"
        }
      ]
    },
    {
      "name": "Export",
      "description": "This view contains the fields that is going to used for exporting class students.",
      "fields": [
        {
          "name": "student",
          "expandable": false,
          "title": "Student",
          "mapping": {
            "options": {
              "$select": "StudentSummary"
            }
          }
        },
        {
          "name": "student/studentIdentifier",
          "property": "studentIdentifier",
          "title": "Student Code"
        },
        {
          "name": "student/person/familyName",
          "property": "familyName",
          "title": "Family Name"
        },
        {
          "name": "student/person/givenName",
          "property": "givenName",
          "title": "Given Name"
        },
        {
          "name": "student/person/fatherName",
          "property": "fatherName",
          "title": "Father Name"
        },
        {
          "name": "student/studentStatus/name",
          "property": "studentStatusName",
          "title": "Status"
        },
        {
          "name": "student/department/name",
          "property": "departmentName",
          "title": "Department"
        },
        {
          "name": "student/inscriptionYear",
          "property": "inscriptionYear",
          "title": "Inscription Year"
        },
        {
          "name": "student/inscriptionPeriod",
          "property": "inscriptionPeriod",
          "title": "Inscription Period"
        },
        {
          "name": "registration/semester",
          "property": "registrationSemester",
          "title": "Semester"
        },
        {
          "name": "sectionName",
          "title": "Class Section"
        },
        {
          "name": "status/name",
          "property": "status",
          "title": "Class registration status"
        },
        {
          "name": "formattedGrade",
          "title": "Grade"
        }
      ],
      "privileges": [
        {
          "mask": 1,
          "type": "self",
          "filter": "courseClass/instructors/instructor eq instructor()",
          "account": "Instructors"
        }
      ]
    },
    {
      "name": "TeachingEventClassStudents",
      "description": "This view contains the fields that is going to used for class students in an education event.",
      "fields": [
        {
          "name": "id"
        },
        {
          "name": "courseClass"
        },
        {
          "name": "student",
          "expandable": false,
          "title": "Student",
          "mapping": {
            "options": {
              "$select": "StudentSummary"
            }
          }
        },
        {
          "name": "student/studentIdentifier",
          "property": "studentIdentifier",
          "title": "Student Code"
        },
        {
          "name": "student/person/familyName",
          "property": "familyName",
          "title": "Family Name"
        },
        {
          "name": "student/person/givenName",
          "property": "givenName",
          "title": "Given Name"
        },
        {
          "name": "student/person/fatherName",
          "property": "fatherName",
          "title": "Father Name"
        },
        {
          "name": "registration/semester",
          "property": "registrationSemester",
          "title": "Semester"
        },
        {
          "name": "section",
          "title": "Class Section"
        },
        {
          "name": "attendances"
        }
      ],
      "privileges": [
        {
          "mask": 1,
          "type": "self",
          "filter": "courseClass/instructors/instructor eq instructor()",
          "account": "Instructors"
        }
      ]
    }
  ],
  "eventListeners": [
    {
      "type": "@themost/data/previous-state-listener"
    },
    {
      "type": "./listeners/student-class-listener",
      "name": "Student class listener"
    },
    {
      "type": "./listeners/student-course-grade-validator",
      "name": "Student course grade validator"
    },
    {
      "type": "./listeners/before-remove-student-course-class",
      "name": "Student course removal after student course class removal listener"
    },
    {
      "type": "./listeners/validate-course-class-section-registration-listener",
      "name": "Student course removal after student course class removal listener"
    }
  ]
}
