{
  "$schema": "https://themost-framework.github.io/themost/models/2018/2/schema.json",
  "@id": "https://universis.io/schemas/ThesisType",
  "name": "ThesisType",
  "title": "Thesis type",
  "hidden": false,
  "sealed": false,
  "abstract": false,
  "caching": "always",
  "implements": "Enumeration",
  "category": "lookup",
  "version": "1.0",
  "fields": [
    {
      "name": "id",
      "title": "Id",
      "type": "Counter",
      "nullable": false,
      "primary": true
    }
  ],
  "privileges": [
    {
      "mask": 1,
      "type": "global",
      "account": "*"
    },
    {
      "mask": 15,
      "type": "global"
    },
    {
      "mask": 15,
      "type": "global",
      "account": "Administrators"
    }
  ],
  "constraints": [
    {
      "type": "unique",
      "description": "Alternate name must be unique across different records",
      "fields": [
        "alternateName"
      ]
    },
    {
      "type": "unique",
      "description": "Name must be unique across different records",
      "fields": [
        "name"
      ]
    }
  ],
  "seed": [
    {
      "alternateName": "diploma",
      "name": "Διπλωματική Εργασία",
      "description": "Διπλωματική εργασία προπτυχιακού επιπέδου σπουδών"
    },
    {
      "alternateName": "degree",
      "name": "Πτυχιακή Εργασία",
      "description": "Πτυχιακή εργασία προπτυχιακού επιπέδου σπουδών"
    },
    {
      "alternateName": "postgraduate",
      "name": "Μεταπτυχιακή Εργασία",
      "description": "Εργασία μεταπτυχιακού επιπέδου σπουδών"
    },
    {
      "alternateName": "doctorate",
      "name": "Διδακτορική διατριβή",
      "description": "Διδακτορική διατριβή"
    }
  ],
  "eventListeners": [
    {
      "name": "Lookup Cache Listener",
      "type": "./listeners/lookup-cache-listener.js"
    }
  ]
}
