{
  "$schema": "https://themost-framework.github.io/themost/models/2018/2/schema.json",
  "@id": "https://universis.io/schemas/UpdateStudentGroupAction",
  "name": "UpdateStudentGroupAction",
  "title": "UpdateStudentGroupAction",
  "hidden": false,
  "sealed": false,
  "version": "1.6",
  "inherits": "UpdateAction",
  "fields": [
    {
      "@id": "http://schema.org/object",
      "name": "object",
      "title": "Student",
      "description": "A student associated with registration action",
      "type": "Student",
      "nullable": false,
      "expandable": true,
      "editable": false,
      "value": "javascript:return this.student();"
    },
    {
      "name": "groups",
      "title": "Study Program Groups",
      "description": "Program Groups",
      "type": "ProgramGroup",
      "many": true,
      "mapping": {
        "cascade": "delete",
        "associationType": "junction",
        "associationAdapter": "ActionProgramGroups"
      }
    },
    {
      "@id": "https://universis.io/properties/registrationYear",
      "name": "academicYear",
      "title": "Academic Year",
      "description": "The academic year of this student action",
      "type": "AcademicYear",
      "nullable": false,
      "expandable": true,
      "value": "javascript:return this.currentYear();",
      "editable": false
    },
    {
      "@id": "https://universis.io/properties/registrationPeriod",
      "name": "academicPeriod",
      "title": "Academic Period",
      "description": "The academic period of this student action",
      "type": "AcademicPeriod",
      "nullable": false,
      "expandable": true,
      "value": "javascript:return this.currentPeriod();",
      "editable": false
    }
  ],
  "eventListeners": [
    {
      "type": "@themost/data/previous-state-listener"
    },
    {
      "type": "./listeners/auto-complete-update-specialty-action-listener"
    },
    {
      "type": "./listeners/after-complete-update-student-group-action-listener"
    }
  ],
  "privileges": [
    {
      "mask": 15,
      "type": "global"
    },
    {
      "mask": 15,
      "type": "global",
      "account": "Administrators"
    },
    {
      "mask": 1,
      "type": "self",
      "filter": "owner eq me()",
      "account": "Students"
    },
    {
      "mask": 2,
      "type": "self",
      "filter": "object/user eq me()",
      "account": "Students"
    },
    {
      "mask": 3,
      "type": "self",
      "account": "Registrar",
      "filter": "object/department eq departments()"
    }
  ]
}
