{
  "$schema": "https://themost-framework.github.io/themost/models/2018/2/schema.json",
  "@id": "http://schema.org/UploadAction",
  "name": "UploadAction",
  "description": "The act of upload an object or a collection of objects.",
  "title": "UploadAction",
  "abstract": false,
  "sealed": false,
  "inherits": "ControlAction",
  "version": "1.5",
  "fields": [
  ],
  "privileges": [
    {
      "mask": 15,
      "type": "global"
    },
    {
      "mask": 15,
      "type": "global",
      "account": "Administrators"
    }
  ]
}
